…
# Dealing with date and time

``` r
# separate date and time components of invoice date
custData$date <- sapply(custData$InvoiceDate, FUN = function(x) {strsplit(x, split = '[ ]')[[1]][1]})
custData$time <- sapply(custData$InvoiceDate, FUN = function(x) {strsplit(x, split = '[ ]')[[1]][2]})
custData
```

    ## # A tibble: 406,829 x 10
    ##    InvoiceNo StockCode Description Quantity InvoiceDate UnitPrice
    ##    <chr>     <chr>     <chr>          <dbl> <chr>           <dbl>
    ##  1 536365    85123A    WHITE HANG~        6 12/1/2010 ~      2.55
    ##  2 536365    71053     WHITE META~        6 12/1/2010 ~      3.39
    ##  3 536365    84406B    CREAM CUPI~        8 12/1/2010 ~      2.75
    ##  4 536365    84029G    KNITTED UN~        6 12/1/2010 ~      3.39
    ##  5 536365    84029E    RED WOOLLY~        6 12/1/2010 ~      3.39
    ##  6 536365    22752     SET 7 BABU~        2 12/1/2010 ~      7.65
    ##  7 536365    21730     GLASS STAR~        6 12/1/2010 ~      4.25
    ##  8 536366    22633     HAND WARME~        6 12/1/2010 ~      1.85
    ##  9 536366    22632     HAND WARME~        6 12/1/2010 ~      1.85
    ## 10 536367    84879     ASSORTED C~       32 12/1/2010 ~      1.69
    ## # ... with 406,819 more rows, and 4 more variables: CustomerID <dbl>,
    ## #   Country <chr>, date <chr>, time <chr>

Now, we have two new variables. ‘Date’ and ‘Time’

``` r
# create month, year and hour of day variables
custData$month <- sapply(custData$date, FUN = function(x) {strsplit(x, split = '[/]')[[1]][1]})
custData$year <- sapply(custData$date, FUN = function(x) {strsplit(x, split = '[/]')[[1]][3]})
custData$hourOfDay <- sapply(custData$time, FUN = function(x) {strsplit(x, split = '[:]')[[1]][1]})
custData
```

    ## # A tibble: 406,829 x 13
    ##    InvoiceNo StockCode Description Quantity InvoiceDate UnitPrice
    ##    <chr>     <chr>     <chr>          <dbl> <chr>           <dbl>
    ##  1 536365    85123A    WHITE HANG~        6 12/1/2010 ~      2.55
    ##  2 536365    71053     WHITE META~        6 12/1/2010 ~      3.39
    ##  3 536365    84406B    CREAM CUPI~        8 12/1/2010 ~      2.75
    ##  4 536365    84029G    KNITTED UN~        6 12/1/2010 ~      3.39
    ##  5 536365    84029E    RED WOOLLY~        6 12/1/2010 ~      3.39
    ##  6 536365    22752     SET 7 BABU~        2 12/1/2010 ~      7.65
    ##  7 536365    21730     GLASS STAR~        6 12/1/2010 ~      4.25
    ##  8 536366    22633     HAND WARME~        6 12/1/2010 ~      1.85
    ##  9 536366    22632     HAND WARME~        6 12/1/2010 ~      1.85
    ## 10 536367    84879     ASSORTED C~       32 12/1/2010 ~      1.69
    ## # ... with 406,819 more rows, and 7 more variables: CustomerID <dbl>,
    ## #   Country <chr>, date <chr>, time <chr>, month <chr>, year <chr>,
    ## #   hourOfDay <chr>
…
